[
  {
    "model": "cas.account",
    "pk": "user_id_test_1",
    "fields": {
      "first_name": "first_name",
      "last_name": "last_name",
      "gender": 1,
      "address": "address",
      "status": 1,
      "created_at": "2011-09-01T13:20:30+03:00",
      "updated_at": "2011-09-01T13:20:30+03:00"
    }
  },
  {
   "model": "cas.AccessToken",
    "pk": "access_token_test_1",
    "fields": {
      "user": "user_id_test_1",
      "ip": "127.0.0.1",
      "app_version": "0.0",
      "push_token": "address",
      "subject_id": "subject_id_test_1",
      "status": 1,
      "created_at": "2011-09-01T13:20:30+03:00",
      "updated_at": "2011-09-01T13:20:30+03:00"
    }
  },
  {
   "model": "billing.PurchasePackage",
    "pk": "package_id_ios_test_1",
    "fields": {
      "name":"Package Test IOS 1",
      "description":"Package Test IOS 0001",
      "platform":"ios",
      "currency":"usd",
      "setup_fee":0,
      "amount":1.99,
      "cycle":12,
      "max_fail_attempts":10,
      "initial_fail_amount_action":"continue",
      "gateway":"ios",
      "color":"#FFFFFF",
      "market_id":"test_ios_1",
      "trial_period":0,
      "frequency":"month",
      "frequency_interval":1,
      "storage":200000001,
      "functional_level":31,
      "created_at": "2011-09-01T13:20:30+03:00",
      "updated_at": "2011-09-01T13:20:30+03:00",
      "status": 1
    }
  },
  {
   "model": "billing.PurchasePackage",
    "pk": "package_id_android_consumption_test_1",
    "fields": {
      "name":"Package Test Android 1",
      "type":"con",
      "description":"Package Test Android Consumption",
      "platform":"android",
      "currency":"usd",
      "setup_fee":0,
      "amount":1.99,
      "cycle":12,
      "max_fail_attempts":10,
      "initial_fail_amount_action":"continue",
      "gateway":"android",
      "color":"#FFFFFF",
      "market_id":"vn.com.upbox.app.and.managed.product1",
      "trial_period":0,
      "frequency":"month",
      "frequency_interval":1,
      "storage":200000001,
      "functional_level":31,
      "created_at": "2011-09-01T13:20:30+03:00",
      "updated_at": "2011-09-01T13:20:30+03:00",
      "status": 1
    }
  },
  {
   "model": "billing.PurchasePackage",
    "pk": "package_id_android_subscription_test_1",
    "fields": {
      "name":"Package Test Android 1",
      "type":"sub",
      "description":"Package Test Android Subscription",
      "platform":"android",
      "currency":"usd",
      "setup_fee":0,
      "amount":1.99,
      "cycle":12,
      "max_fail_attempts":10,
      "initial_fail_amount_action":"continue",
      "gateway":"android",
      "color":"#FFFFFF",
      "market_id":"vn.com.upbox.app.and.subscription1",
      "trial_period":0,
      "frequency":"month",
      "frequency_interval":1,
      "storage":200000001,
      "functional_level":31,
      "created_at": "2011-09-01T13:20:30+03:00",
      "updated_at": "2011-09-01T13:20:30+03:00",
      "status": 1
    }
  }

]